…
```
## ── Conflicts ─────────────────────────────── tidyverse_conflicts() ──
## ✖ dplyr::filter() masks stats::filter()
## ✖ dplyr::lag()    masks stats::lag()
```

# 1: Proceedings of the National Academy of Sciences

```r
data("msleep")
msleep
```

```
## # A tibble: 83 x 11
##    name  genus vore  order conservation sleep_total sleep_rem sleep_cycle
##    <chr> <chr> <chr> <chr> <chr>              <dbl>     <dbl>       <dbl>
##  1 Chee… Acin… carni Carn… lc                  12.1      NA        NA    
##  2 Owl … Aotus omni  Prim… <NA>                17         1.8      NA    
##  3 Moun… Aplo… herbi Rode… nt                  14.4       2.4      NA    
##  4 Grea… Blar… omni  Sori… lc                  14.9       2.3       0.133
##  5 Cow   Bos   herbi Arti… domesticated         4         0.7       0.667
##  6 Thre… Brad… herbi Pilo… <NA>                14.4       2.2       0.767
##  7 Nort… Call… carni Carn… vu                   8.7       1.4       0.383
##  8 Vesp… Calo… <NA>  Rode… <NA>                 7        NA        NA    
##  9 Dog   Canis carni Carn… domesticated        10.1       2.9       0.333
## 10 Roe … Capr… herbi Arti… lc                   3        NA        NA    
## # … with 73 more rows, and 3 more variables: awake <dbl>, brainwt <dbl>,
## #   bodywt <dbl>
```
…
# 3

```r
msleep %>%
  select(bodywt,name,genus) %>%
  arrange(desc(bodywt))
```

```
## # A tibble: 83 x 3
##    bodywt name                 genus        
##     <dbl> <chr>                <chr>        
##  1  6654  African elephant     Loxodonta    
##  2  2547  Asian elephant       Elephas      
##  3   900. Giraffe              Giraffa      
##  4   800  Pilot whale          Globicephalus
##  5   600  Cow                  Bos          
##  6   521  Horse                Equus        
##  7   208. Brazilian tapir      Tapirus      
##  8   187  Donkey               Equus        
##  9   173. Bottle-nosed dolphin Tursiops     
## 10   163. Tiger                Panthera     
## # … with 73 more rows
```
…
```
## Observations: 36
## Variables: 4
## $ bodywt      <dbl> 1.000, 0.920, 0.900, 0.770, 0.743, 0.728, 0.550, 0.4…
## $ sleep_total <dbl> 8.3, 16.6, 15.6, 10.1, 9.6, 9.4, 10.3, 17.0, 12.5, 1…
## $ name        <chr> "African giant pouched rat", "Arctic ground squirrel…
## $ genus       <chr> "Cricetomys", "Spermophilus", "Tenrec", "Erinaceus",…
```

```r
small
```

```
## # A tibble: 36 x 4
##    bodywt sleep_total name                      genus       
##     <dbl>       <dbl> <chr>                     <chr>       
##  1  1             8.3 African giant pouched rat Cricetomys  
##  2  0.92         16.6 Arctic ground squirrel    Spermophilus
##  3  0.9          15.6 Tenrec                    Tenrec      
##  4  0.77         10.1 European hedgehog         Erinaceus   
##  5  0.743         9.6 Squirrel monkey           Saimiri     
##  6  0.728         9.4 Guinea pig                Cavis       
##  7  0.55         10.3 Desert hedgehog           Paraechinus 
##  8  0.48         17   Owl monkey                Aotus       
##  9  0.42         12.5 Chinchilla                Chinchilla  
## 10  0.37         19.4 Thick-tailed opposum      Lutreolina  
## # … with 26 more rows
```
…
