…
# 4: The data is not tidy because variables (years) are being used as columns.

# 5

```r
fisheries_tidy <- 
  fisheries %>% 
  gather(num_range('X',1950:2012), key='year', value='catch')
fisheries_tidy
```

```
## # A tibble: 1,114,596 x 10
##    country commname spgroup spgroupname spcode sciname region unit  year 
##    <chr>   <chr>      <dbl> <chr>       <chr>  <chr>    <dbl> <chr> <chr>
##  1 Albania Angelsh…      38 Sharks, ra… 10903… Squati…     37 Quan… X1950
##  2 Albania Atlanti…      36 Tunas, bon… 17501… Sarda …     37 Quan… X1950
##  3 Albania Barracu…      37 Miscellane… 17710… Sphyra…     37 Quan… X1950
##  4 Albania Blue an…      45 Shrimps, p… 22802… Ariste…     37 Quan… X1950
##  5 Albania Blue wh…      32 Cods, hake… 14804… Microm…     37 Quan… X1950
##  6 Albania Bluefish      37 Miscellane… 17020… Pomato…     37 Quan… X1950
##  7 Albania Bogue         33 Miscellane… 17039… Boops …     37 Quan… X1950
##  8 Albania Caramot…      45 Shrimps, p… 22801… Penaeu…     37 Quan… X1950
##  9 Albania Catshar…      38 Sharks, ra… 10801… Scylio…     37 Quan… X1950
## 10 Albania Common …      57 Squids, cu… 32102… Sepia …     37 Quan… X1950
## # … with 1,114,586 more rows, and 1 more variable: catch <chr>
```
…
# 8: Data is tidy because varliables are no longer columns

# 9:


```r
fisheries_tidy %>% 
  select(country, spgroupname, year, catch) %>%
  filter(year>= 2008, year<=2012,
    spgroupname=="Squids, cuttlefishes, octopuses") %>%
  arrange(desc(catch))
```

```
## # A tibble: 3,725 x 4
##    country  spgroupname                      year  catch
##    <chr>    <chr>                           <dbl>  <dbl>
##  1 Peru     Squids, cuttlefishes, octopuses  2008 533414
##  2 China    Squids, cuttlefishes, octopuses  2008 462981
##  3 China    Squids, cuttlefishes, octopuses  2012 434845
##  4 Peru     Squids, cuttlefishes, octopuses  2011 404730
##  5 China    Squids, cuttlefishes, octopuses  2009 392478
##  6 China    Squids, cuttlefishes, octopuses  2011 390393
##  7 Peru     Squids, cuttlefishes, octopuses  2010 369822
##  8 China    Squids, cuttlefishes, octopuses  2012 261000
##  9 Viet Nam Squids, cuttlefishes, octopuses  2010 260000
## 10 Japan    Squids, cuttlefishes, octopuses  2011 242262
## # … with 3,715 more rows
```
…
# 10: France

```r
cuttle <- 
  fisheries_tidy %>% 
  select(country, commname, year, catch) %>% 
  filter(year>=2008 & year<=2012) %>%
  filter(commname=="Common cuttlefish") %>%
  arrange(desc(catch))
cuttle
```

```
## # A tibble: 105 x 4
##    country  commname           year catch
##    <chr>    <chr>             <dbl> <dbl>
##  1 France   Common cuttlefish  2012 13217
##  2 France   Common cuttlefish  2011 12966
##  3 France   Common cuttlefish  2009  8076
##  4 Tunisia  Common cuttlefish  2012  7717
##  5 Tunisia  Common cuttlefish  2011  6371
##  6 Tunisia  Common cuttlefish  2008  4913
##  7 Tunisia  Common cuttlefish  2009  3924
##  8 Portugal Common cuttlefish  2010  2027
##  9 Libya    Common cuttlefish  2009  1800
## 10 Libya    Common cuttlefish  2010  1750
## # … with 95 more rows
```
